{
	"info": {
		"_postman_id": "9f322874-5eab-4e03-8378-b7eae73c00de",
		"name": "Perso - Election BDE",
		"schema": "https://schema.getpostman.com/json/collection/v2.1.0/collection.json"
	},
	"item": [
		{
			"name": "Factory Read Address",
			"request": {
				"method": "GET",
				"header": [],
				"url": {
					"raw": "http://localhost:80/api/v1/factory",
					"protocol": "http",
					"host": [
						"localhost"
					],
					"port": "80",
					"path": [
						"api",
						"v1",
						"factory"
					]
				}
			},
			"response": []
		},
		{
			"name": "Factory Read",
			"request": {
				"method": "GET",
				"header": [],
				"url": {
					"raw": "http://localhost:80/api/v1/factory/address",
					"protocol": "http",
					"host": [
						"localhost"
					],
					"port": "80",
					"path": [
						"api",
						"v1",
						"factory",
						"address"
					]
				}
			},
			"response": []
		}
	]
}